<?xml version="1.0"?>
<svg xmlns="http://www.w3.org/2000/svg" xmlns:xlink="http://www.w3.org/1999/xlink" version="1.1" id="Capa_1" x="0px" y="0px" width="512px" height="512px" viewBox="0 0 292.362 292.361" style="enable-background:new 0 0 292.362 292.361;" xml:space="preserve" class=""><g><g>
	<path d="M286.935,197.287L159.028,69.381c-3.613-3.617-7.895-5.424-12.847-5.424s-9.233,1.807-12.85,5.424L5.424,197.287   C1.807,200.904,0,205.186,0,210.134s1.807,9.233,5.424,12.847c3.621,3.617,7.902,5.425,12.85,5.425h255.813   c4.949,0,9.233-1.808,12.848-5.425c3.613-3.613,5.427-7.898,5.427-12.847S290.548,200.904,286.935,197.287z" data-original="#000000" class="active-path" data-old_color="#000000" fill="#019A48"/>
</g></g> </svg>
